プログラミング
…
tidyなデータ見本 
 縦持ちデータ

iris %>% 
  tidyr::pivot_longer(
    cols = c("Sepal.Length", "Sepal.Width", "Petal.Length", "Petal.Width"),
    names_to = "attributes",
    values_to = "size"
  )

## # A tibble: 600 x 3
##    Species attributes    size
##    <fct>   <chr>        <dbl>
##  1 setosa  Sepal.Length   5.1
##  2 setosa  Sepal.Width    3.5
##  3 setosa  Petal.Length   1.4
##  4 setosa  Petal.Width    0.2
##  5 setosa  Sepal.Length   4.9
##  6 setosa  Sepal.Width    3  
##  7 setosa  Petal.Length   1.4
##  8 setosa  Petal.Width    0.2
##  9 setosa  Sepal.Length   4.7
## 10 setosa  Sepal.Width    3.2
## # ... with 590 more rows
…
